^C:\USERS\AMSD\DOCUMENTS\VISUAL STUDIO 2010\PROJECTS\OPENGL\OPENGL\RELEASE\OPENGL.EXE.INTERMEDIATE.MANIFEST
C:\WINDOWS\MICROSOFT.NET\FRAMEWORK\V2.0.50727\MSCORWKS.DLL
C:\WINDOWS\MICROSOFT.NET\FRAMEWORK\V4.0.30319\CLR.DLL
C:\PROGRAM FILES (X86)\MICROSOFT SDKS\WINDOWS\V7.0A\BIN\MT.EXE.CONFIG
C:\USERS\AMSD\DOCUMENTS\VISUAL STUDIO 2010\PROJECTS\OPENGL\RELEASE\OPENGL.EXE
^C:\USERS\AMSD\DESKTOP\ICG\HW1_2014\SIMPLE_SHADING\OPENGL\RELEASE\OPENGL.EXE.INTERMEDIATE.MANIFEST
C:\WINDOWS\MICROSOFT.NET\FRAMEWORK\V2.0.50727\MSCORWKS.DLL
C:\WINDOWS\MICROSOFT.NET\FRAMEWORK\V4.0.30319\CLR.DLL
C:\PROGRAM FILES (X86)\MICROSOFT SDKS\WINDOWS\V7.0A\BIN\MT.EXE.CONFIG
C:\USERS\AMSD\DESKTOP\ICG\HW1_2014\SIMPLE_SHADING\RELEASE\OPENGL.EXE
