^C:\USERS\CARSONWANG\DOWNLOADS\HW1\OPENGL\RELEASE\CONTROLS.OBJ|C:\USERS\CARSONWANG\DOWNLOADS\HW1\OPENGL\RELEASE\LIGHT.OBJ|C:\USERS\CARSONWANG\DOWNLOADS\HW1\OPENGL\RELEASE\MAIN.OBJ|C:\USERS\CARSONWANG\DOWNLOADS\HW1\OPENGL\RELEASE\SHADER.OBJ|C:\USERS\CARSONWANG\DOWNLOADS\HW1\OPENGL\RELEASE\TRANSFORM.OBJ|C:\USERS\CARSONWANG\DOWNLOADS\HW1\OPENGL\RELEASE\TRIMODEL.OBJ|C:\USERS\CARSONWANG\DOWNLOADS\HW1\OPENGL\RELEASE\VBO.OBJ
C:\USERS\CARSONWANG\DOWNLOADS\HW1\RELEASE\OPENGL.EXE
C:\USERS\CARSONWANG\DOWNLOADS\HW1\RELEASE\OPENGL.PDB
